{
  "current": "Default",
  "presets": {
    "Default": {
      "ajax_cart_method": "drawer",
      "cart_notes_enable": true,
      "color_body_bg": "#F7F7F7",
      "color_body_text": "#222",
      "color_borders": "#CCCCCC",
      "color_footer_bg": "#EDEDED",
      "color_footer_social_link": "#222222",
      "color_footer_text": "#000000",
      "color_primary": "#88B511",
      "color_secondary": "#F0F0F0",
      "favicon_enable": false,
      "footer_newsletter_enable": true,
      "footer_social_enable": true,
      "logo_use_image": false,
      "social_facebook_link": "",
      "social_twitter_link": ""
    }
  }
}
