{
  "IcoMoonType": "selection",
  "icons": [
    {
      "icon": {
        "paths": [
          "M512 102.4c-225.865 0-409.6 183.735-409.6 409.6s183.735 409.6 409.6 409.6c225.865 0 409.6-183.735 409.6-409.6s-183.735-409.6-409.6-409.6v0zM701.587 600.941c-9.363 29.257-24.576 52.663-42.131 70.217-14.044 14.044-32.768 24.576-56.173 31.597-17.555 5.852-40.96 8.192-71.388 8.192h-150.967v-168.521h-70.217v-58.515h70.217v-170.861h146.285c32.768 0 58.515 2.34 76.068 7.021 23.405 7.021 43.3 18.724 59.684 36.279s29.257 38.62 37.449 64.365c8.192 25.747 12.873 56.173 12.873 93.623 0 33.939-3.511 62.025-11.703 86.601v0z",
          "M599.772 403.164c-9.363-9.363-22.236-15.213-37.449-18.724-11.703-2.34-32.768-3.511-65.536-3.511h-36.279v102.985h67.876v58.515h-67.876v101.815h59.684c22.236 0 38.62-1.171 47.981-3.511 12.873-3.511 23.405-8.192 32.768-16.384 8.192-8.192 15.213-21.065 21.065-38.62s8.192-42.131 8.192-72.557c0-30.428-2.34-53.833-8.192-71.388-4.681-16.384-12.873-29.257-22.236-38.62v0z"
        ],
        "attrs": [],
        "isMulticolor": false,
        "isMulticolor2": false,
        "colorPermutations": {
          "01": []
        },
        "tags": [
          "dogecoin"
        ],
        "grid": 10
      },
      "attrs": [],
      "properties": {
        "order": 6,
        "id": 0,
        "name": "dogecoin",
        "prevSize": 32,
        "code": 59652
      },
      "setIdx": 0,
      "setId": 2,
      "iconIdx": 0
    },
    {
      "icon": {
        "paths": [
          "M2370.56 757.76c-15.36 0-30.72 0-46.080 0-15.36-46.080-35.84-87.040-51.2-133.12-66.56 0-128 0-194.56 0-15.36 46.080-35.84 87.040-51.2 133.12-102.4 0-204.8 0-312.32 0 0-148.48 0-435.2 0-435.2h40.96c0 0 0 261.12 0 394.24 81.92 0 158.72 0 240.64 0 51.2-133.12 158.72-399.36 158.72-399.36h46.080c0 0 15.36 35.84 25.6 56.32 46.080 117.76 92.16 240.64 138.24 363.52 0 5.12 0 10.24 5.12 10.24 0 5.12 0 10.24 0 10.24zM2181.12 373.76c-30.72 71.68-61.44 138.24-87.040 215.040 56.32 0 107.52 0 163.84 0-25.6-76.8-51.2-148.48-76.8-215.040z",
          "M773.12 691.2c30.72-122.88 97.28-368.64 97.28-368.64h40.96c0 0-76.8 291.84-117.76 435.2-15.36 0-30.72 0-46.080 0-35.84-128-71.68-256-107.52-384 0 0-5.12 0-5.12 0-35.84 128-71.68 256-107.52 378.88-15.36 5.12-30.72 0-46.080 0-40.96-143.36-117.76-435.2-117.76-435.2h46.080c0 0 61.44 245.76 97.28 368.64 0 0 5.12 0 5.12 0 35.84-122.88 66.56-245.76 102.4-368.64 20.48 0 35.84 0 51.2 0 35.84 122.88 66.56 245.76 102.4 368.64 0 5.12 5.12 5.12 5.12 5.12z",
          "M0 757.76c0-148.48 0-440.32 0-440.32h66.56c0 0 81.92 0 122.88 5.12 81.92 10.24 138.24 56.32 158.72 138.24 15.36 56.32 15.36 117.76 0 174.080-20.48 76.8-71.68 112.64-148.48 122.88-71.68 5.12-133.12 0-199.68 0zM40.96 721.92c40.96 0 81.92 5.12 122.88 0 81.92-5.12 122.88-46.080 138.24-117.76 10.24-46.080 10.24-92.16-5.12-138.24-10.24-46.080-40.96-76.8-87.040-92.16-56.32-20.48-112.64-10.24-174.080-10.24 5.12 117.76 5.12 235.52 5.12 358.4z",
          "M921.6 542.72c0-56.32 10.24-102.4 40.96-148.48 76.8-117.76 281.6-117.76 343.040 25.6 35.84 76.8 35.84 158.72 0 235.52-35.84 81.92-102.4 117.76-194.56 112.64-81.92-5.12-143.36-46.080-174.080-122.88-10.24-30.72-15.36-66.56-15.36-102.4zM1290.24 537.6c0-40.96-10.24-81.92-30.72-117.76-56.32-87.040-189.44-97.28-250.88-15.36-56.32 71.68-56.32 199.68-5.12 271.36 56.32 76.8 194.56 76.8 250.88-5.12 25.6-40.96 35.84-81.92 35.84-133.12z",
          "M1428.48 721.92c81.92 0 163.84 0 240.64 0 10.24 10.24 5.12 20.48 5.12 35.84-97.28 0-189.44 0-286.72 0 0-143.36 0-430.080 0-430.080h40.96c0-0 0 261.12 0 394.24z"
        ],
        "width": 2396,
        "attrs": [],
        "isMulticolor": false,
        "isMulticolor2": false,
        "colorPermutations": {
          "01": []
        },
        "tags": [
          "dwolla"
        ],
        "grid": 10
      },
      "attrs": [],
      "properties": {
        "order": 7,
        "id": 1,
        "name": "dwolla",
        "prevSize": 32,
        "code": 59653
      },
      "setIdx": 0,
      "setId": 2,
      "iconIdx": 1
    },
    {
      "icon": {
        "paths": [
          "M375.467 936.041c19.692-5.251 37.415-13.128 53.826-24.287 49.231-32.821 80.082-78.113 94.523-134.564 7.877-30.851 11.815-61.703 11.159-93.867-1.313-33.477-0.656-66.954 0-101.087 0-15.754 0.656-16.41 15.754-16.41 35.446 0 70.892 0 106.338 0 5.251 0 10.503 0 15.754 0 13.128-0.656 15.097-1.969 15.754-15.754 0.656-36.103 0.656-72.205 0-108.964 0-16.41-1.313-18.379-18.379-18.379-38.728 0-78.113 0-116.841 0-19.036 0-19.692 0-18.379-19.036 1.969-40.041 19.036-70.892 57.108-87.303 16.41-6.564 32.821-12.472 51.2-11.815 1.969 0 3.282 0 5.251 0 40.041-2.626 40.041-2.626 40.041-42.667 0-46.605 0-93.21 0-138.503 6.564-5.908 11.159-3.282 16.41-1.313 79.426 27.569 131.938 82.051 160.164 160.164 19.036 51.856 28.882 106.338 31.508 161.477 1.969 47.918 3.282 95.836 0 143.097-4.595 67.61-18.379 133.251-51.2 193.641-33.477 61.046-82.708 103.713-147.036 129.969-55.795 22.318-114.215 32.821-174.605 31.508-43.323-0.656-86.646 0-129.969-0.656-6.564 1.313-13.128 3.938-18.379-5.251z",
          "M576.985 99.118c-0.656 4.595-4.595 3.938-7.877 4.595-55.138 1.969-97.805 27.569-137.846 63.015-38.072 34.133-53.169 76.8-60.39 124.718-5.251 34.79-10.503 69.579-11.159 104.369 0 2.626 0 5.251-0.656 7.877-3.282 19.036-3.282 19.036-22.974 19.036-74.831 0-150.318 0-225.149 0-4.595 0-8.533 1.313-13.785-2.626 3.938-50.544 10.503-100.431 28.226-149.662 28.226-78.769 82.051-128 161.477-152.287 37.415-11.159 74.831-15.754 112.903-20.349 57.108-7.221 114.215-2.626 171.323-3.282 2.626 0.656 5.251 1.313 5.908 4.595z",
          "M256 917.005c-63.015-21.005-105.682-63.015-128.656-124.718-15.097-40.041-24.287-82.051-27.569-125.374-1.969-28.882-3.938-57.764-5.251-86.646-0.656-9.846 1.969-14.441 13.128-14.441 78.769 0.656 156.882 0 235.651 0 9.846 0 13.785 2.626 13.785 13.128-0.656 35.446-0.656 70.892 0 105.682 0 10.503-4.595 18.379-10.503 26.256-19.692 27.569-44.636 45.949-78.769 51.2-9.19 1.313-7.877 7.877-7.877 13.785 0 40.697 0 81.395 0 122.092-1.313 5.908 1.313 12.472-3.938 19.036z"
        ],
        "width": 1037,
        "attrs": [],
        "isMulticolor": false,
        "isMulticolor2": false,
        "colorPermutations": {
          "01": []
        },
        "tags": [
          "forbrugsforeningen"
        ],
        "grid": 10
      },
      "attrs": [],
      "properties": {
        "order": 8,
        "id": 2,
        "name": "forbrugsforeningen",
        "prevSize": 32,
        "code": 59654
      },
      "setIdx": 0,
      "setId": 2,
      "iconIdx": 2
    },
    {
      "icon": {
        "paths": [
          "M512 102.4c-225.865 0-409.6 183.735-409.6 409.6s183.735 409.6 409.6 409.6c225.865 0 409.6-183.735 409.6-409.6s-183.735-409.6-409.6-409.6v0zM668.819 707.437h-322.999l32.768-126.391-44.471 16.384 11.703-50.323 45.641-16.384 53.833-212.992h131.072l-45.641 161.5 52.663-19.895-15.213 51.492-52.663 18.724-29.257 102.985h202.46l-19.895 74.899z"
        ],
        "attrs": [],
        "isMulticolor": false,
        "isMulticolor2": false,
        "colorPermutations": {
          "01": []
        },
        "tags": [
          "litecoin"
        ],
        "grid": 10
      },
      "attrs": [],
      "properties": {
        "order": 10,
        "id": 3,
        "name": "litecoin",
        "prevSize": 32,
        "code": 59656
      },
      "setIdx": 0,
      "setId": 2,
      "iconIdx": 3
    },
    {
      "icon": {
        "paths": [
          "M622.884 452.001v141.033h233.256c-9.415 60.507-70.501 177.44-233.256 177.44-140.423 0-255.010-116.355-255.010-259.702s114.587-259.702 255.010-259.702c79.916 0 133.385 34.093 163.944 63.463l111.631-107.518c-71.689-66.998-164.523-107.518-275.575-107.518-227.408 0-411.307 183.899-411.307 411.307s183.899 411.307 411.307 411.307c237.369 0 394.854-166.868 394.854-401.892 0-27.024-2.924-47.589-6.459-68.155h-388.396z",
          "M1504.268 452.001h-117.512v-117.512h-117.512v117.512h-117.512v117.512h117.512v117.512h117.512v-117.512h117.512z"
        ],
        "width": 1707,
        "attrs": [],
        "isMulticolor": false,
        "isMulticolor2": false,
        "tags": [
          "google-plus"
        ],
        "grid": 10
      },
      "attrs": [],
      "properties": {
        "order": 3,
        "id": 4,
        "name": "google-plus",
        "prevSize": 32,
        "code": 59648
      },
      "setIdx": 0,
      "setId": 2,
      "iconIdx": 4
    },
    {
      "icon": {
        "paths": [
          "M512 182.928c107.248 0 119.836 0.478 162.226 2.39 39.202 1.753 60.396 8.286 74.579 13.864 18.804 7.33 32.19 15.936 46.214 29.96s22.788 27.41 29.96 46.214c5.418 14.182 12.112 35.378 13.864 74.579 1.912 42.389 2.39 54.978 2.39 162.226s-0.478 119.836-2.39 162.226c-1.753 39.202-8.286 60.396-13.864 74.579-7.33 18.804-15.936 32.19-29.96 46.214s-27.41 22.788-46.214 29.96c-14.182 5.418-35.378 12.112-74.579 13.864-42.389 1.912-54.978 2.39-162.226 2.39s-119.836-0.478-162.226-2.39c-39.202-1.753-60.396-8.286-74.579-13.864-18.804-7.33-32.19-15.936-46.214-29.96s-22.788-27.41-29.96-46.214c-5.418-14.182-12.112-35.378-13.864-74.579-1.912-42.389-2.39-54.978-2.39-162.226s0.478-119.836 2.39-162.226c1.753-39.202 8.286-60.396 13.864-74.579 7.33-18.804 15.936-32.19 29.96-46.214s27.41-22.788 46.214-29.96c14.182-5.418 35.378-12.112 74.579-13.864 42.389-2.072 54.978-2.39 162.226-2.39zM512 110.58c-109 0-122.704 0.478-165.572 2.39-42.708 1.912-71.87 8.764-97.367 18.644-26.454 10.198-48.764 24.062-71.074 46.372s-36.014 44.78-46.372 71.074c-9.88 25.498-16.732 54.66-18.644 97.526-1.912 42.708-2.39 56.412-2.39 165.412s0.478 122.704 2.39 165.572c1.912 42.708 8.764 71.87 18.644 97.526 10.198 26.454 24.062 48.764 46.372 71.074s44.78 36.014 71.074 46.372c25.498 9.88 54.66 16.732 97.526 18.644s56.412 2.39 165.572 2.39 122.704-0.478 165.572-2.39c42.708-1.912 71.87-8.764 97.526-18.644 26.454-10.198 48.764-24.062 71.074-46.372s36.014-44.78 46.372-71.074c9.88-25.498 16.732-54.66 18.644-97.526s2.39-56.412 2.39-165.572-0.478-122.704-2.39-165.572c-1.912-42.708-8.764-71.87-18.644-97.526-10.198-26.454-24.062-48.764-46.372-71.074s-44.78-36.014-71.074-46.372c-25.498-9.88-54.66-16.732-97.526-18.644-43.026-1.753-56.731-2.231-165.732-2.231v0z",
          "M512 305.792c-113.78 0-206.208 92.268-206.208 206.208s92.427 206.208 206.208 206.208 206.208-92.427 206.208-206.208-92.427-206.208-206.208-206.208zM512 645.86c-73.942 0-133.86-59.918-133.86-133.86s59.918-133.86 133.86-133.86c73.942 0 133.86 59.918 133.86 133.86s-59.918 133.86-133.86 133.86z",
          "M774.461 297.665c0 26.58-21.546 48.126-48.126 48.126s-48.126-21.546-48.126-48.126c0-26.58 21.546-48.126 48.126-48.126s48.126 21.546 48.126 48.126z"
        ],
        "attrs": [],
        "isMulticolor": false,
        "isMulticolor2": false,
        "tags": [
          "instagram"
        ],
        "grid": 10
      },
      "attrs": [],
      "properties": {
        "order": 2,
        "id": 5,
        "name": "instagram",
        "prevSize": 32,
        "code": 59649
      },
      "setIdx": 0,
      "setId": 2,
      "iconIdx": 5
    },
    {
      "icon": {
        "paths": [
          "M329.195 618.654c-8.192 0-15.438 0.946-23.315 3.467v100.825c7.875 3.779 14.179 5.355 22.683 5.355 30.563 0 48.835-21.107 48.835-56.083 0-33.714-17.96-53.563-48.203-53.563z",
          "M946.118 618.654c-18.906 0-32.768 16.384-34.343 40.014h65.851c-1.259-20.48-11.342-40.014-31.507-40.014z",
          "M447.661 682.93c-7.563 3.779-11.659 11.027-11.659 20.163 0 15.438 9.451 25.203 24.259 25.203 16.699 0 29.299-11.027 37.491-19.534v-32.139l-23.315 0.627c-11.971 0.627-20.163 2.203-26.779 5.672z",
          "M436.319 337.604c-20.48 0-42.535 4.411-42.535 28.672 0 12.288 6.299 20.795 17.33 20.795 7.875 0 15.123-5.042 19.851-12.915 5.672-9.768 5.355-19.219 5.355-30.247v-6.299z",
          "M1070.884 284.044c-21.107 0-22.371 28.672-22.371 46.631s-0.315 56.083 22.055 56.083c22.055 0 23.315-30.875 23.315-49.779 0-12.288-0.627-27.098-4.411-38.755-3.15-10.083-9.768-14.179-18.587-14.179z",
          "M767.781 366.592c0 12.288 6.299 20.795 17.33 20.795 7.875 0 15.123-5.042 19.851-12.915 5.672-9.768 5.355-19.219 5.355-30.247v-6.299c-20.48-0.315-42.535 4.096-42.535 28.672z",
          "M1374.621 102.243h-1115.375c-52.931 0-96.099 48.203-96.099 107.443v604.317c0 59.547 43.163 107.443 96.099 107.443h1115.375c52.931 0 96.099-48.203 96.099-107.443v-604.317c0-59.235-42.851-107.443-96.099-107.443zM879.947 383.602c0-3.467 0-9.138 3.467-14.491l56.395-80.659h-49.152c-2.835 0-5.355-2.203-5.355-5.355v-20.795c0-3.15 2.522-5.355 5.355-5.355h93.891c2.835 0 5.355 2.203 5.355 5.355v17.96c0 2.835-2.522 6.931-6.931 13.234l-48.523 69.315c17.96-0.315 37.179 2.203 53.563 11.342 3.779 2.203 4.723 5.042 5.042 8.192v22.371c0 3.15-3.467 6.618-6.931 4.723-28.987-15.123-67.111-16.699-99.251 0.315-3.15 1.574-6.618-1.891-6.618-4.723v-21.426zM882.785 435.277c30.563-21.426 80.975-15.438 86.643-8.192 5.987 7.246-1.574 57.659-30.247 81.603-4.411 3.779-8.507 1.574-6.618-3.15 6.618-16.067 21.107-52.299 14.179-61.123s-45.371-4.096-62.699-2.203c-5.355 0.946-5.987-3.779-1.259-6.931zM806.853 290.343c-3.467-5.355-10.083-7.563-16.067-7.563-11.027 0-20.48 5.672-23.002 17.33-0.627 2.522-2.522 5.042-5.042 5.355l-27.726-2.835c-2.203-0.627-5.042-2.522-4.411-5.987 6.299-33.714 36.547-43.795 63.961-43.795 13.864 0 32.139 3.779 42.851 14.179 13.864 12.915 12.603 30.247 12.603 49.152v44.427c0 13.234 5.672 19.219 10.714 26.467 1.891 2.522 2.203 5.672 0 7.563-5.987 5.042-16.067 13.864-22.055 18.906v0c-1.891 1.574-4.723 1.891-6.618 0.627-9.451-7.875-11.027-11.659-16.384-18.906-15.755 16.067-26.779 20.795-46.947 20.795-23.947 0-42.851-14.81-42.851-44.427 0-23.315 12.603-39.067 30.563-46.631 15.438-6.931 37.179-8.192 53.563-9.768v-3.779c0.315-7.246 0.946-15.123-3.15-21.107zM509.417 262.617c0-2.835 2.522-5.355 5.355-5.355h26.467c2.835 0 5.042 2.203 5.355 5.042v19.219h0.627c6.931-18.587 19.851-27.098 37.491-27.098 17.96 0 28.987 8.507 36.864 27.098 6.931-18.587 22.683-27.098 39.385-27.098 11.971 0 25.203 5.042 33.083 16.067 9.138 12.288 7.246 30.247 7.246 46.002v92.315c0 2.835-2.522 5.355-5.672 5.355h-28.355c-2.835-0.315-5.042-2.522-5.042-5.355v-77.825c0-6.299 0.627-21.426-0.627-27.411-2.203-9.768-8.507-12.603-16.699-12.603-6.931 0-14.179 4.723-17.011 11.971s-2.522 19.851-2.522 28.043v77.507c0 2.835-2.522 5.355-5.355 5.355h-28.672c-2.835-0.315-5.042-2.522-5.042-5.355v-77.507c0-16.384 2.522-40.331-17.643-40.331-20.48 0-19.851 23.315-19.851 40.331v77.507c0 2.835-2.522 5.355-5.355 5.355h-28.672c-2.835-0.315-5.042-2.203-5.042-4.723v-146.51zM731.861 495.461c59.547 0 124.774-12.288 184.636-37.81 9.138-3.779 16.699 5.987 7.875 12.603-53.563 39.385-131.39 60.491-198.183 60.491-93.891 0-178.332-34.659-241.98-92.315-5.042-4.411-0.627-10.714 5.355-7.246 69.003 40.014 154.074 64.275 242.292 64.275zM432.853 290.343c-3.467-5.355-10.083-7.563-16.067-7.563-11.027 0-20.48 5.672-23.002 17.33-0.315 2.522-2.203 5.042-5.042 5.355l-27.726-2.835c-2.203-0.627-5.042-2.522-4.411-5.987 6.299-33.714 36.547-43.795 63.961-43.795 13.864 0 32.139 3.779 42.851 14.179 13.864 12.915 12.603 30.247 12.603 49.152v44.427c0 13.234 5.672 19.219 10.714 26.467 1.891 2.522 2.203 5.672 0 7.563-5.987 5.042-16.067 13.864-22.055 18.906v0c-1.891 1.574-4.723 1.891-6.618 0.627-9.451-7.875-11.027-11.659-16.384-18.906-15.755 16.067-26.779 20.795-46.947 20.795-23.947 0-42.851-14.81-42.851-44.427 0-23.315 12.603-39.067 30.563-46.631 15.438-6.931 37.179-8.192 53.563-9.768v-3.779c0.315-7.246 0.627-15.123-3.15-21.107zM328.563 748.78c-7.563 0-15.438-1.574-22.683-4.096v66.795c0 1.891-1.574 3.15-3.15 3.15h-15.438c-1.891 0-3.15-1.574-3.15-3.15v-201.651c0-1.259 0.946-2.522 1.891-2.835 13.864-5.355 29.299-8.192 43.163-8.192 44.11 0 70.579 27.726 70.579 74.355 0.315 44.427-28.987 75.619-71.207 75.619zM504.689 745.945c-1.574 0-2.835-0.946-3.15-2.522l-2.203-11.027c-12.288 11.027-25.835 16.384-40.014 16.384-27.098 0-46.002-18.587-46.002-45.056 0-18.275 8.819-32.451 25.203-40.014 9.768-4.411 20.48-5.672 34.971-6.299l24.576-0.627v-7.246c0-19.534-9.768-30.247-27.726-30.247-16.699 0-27.098 5.355-36.864 11.342-0.627 0.627-1.574 0.627-2.522 0.315s-1.574-0.627-1.891-1.574l-6.618-11.971c-0.946-1.574-0.315-3.467 0.946-4.411 18.275-11.971 35.918-14.491 47.577-14.491 31.193 0 49.152 17.643 49.152 48.523v43.481c0 28.043 0.946 43.795 2.835 51.043 0.315 0.946 0 1.891-0.627 2.835-0.627 0.627-1.574 1.259-2.522 1.259h-15.123zM656.874 606.051l-50.727 150.926c-17.33 50.727-39.385 57.659-60.491 57.659-9.138 0-15.438-1.259-22.683-4.096-1.574-0.627-2.203-2.203-1.891-3.779l3.467-13.547c0.315-0.946 0.946-1.574 1.574-2.203 0.946-0.315 1.891-0.315 2.522 0 5.355 2.203 11.027 3.15 17.011 3.15 19.219 0 32.768-15.755 42.535-49.779l-59.865-138.006c-0.315-0.946-0.315-2.203 0.315-3.15s1.574-1.574 2.522-1.574h17.643c1.259 0 2.522 0.627 2.835 1.891l46.631 109.646 35.603-109.334c0.315-1.259 1.574-2.203 3.15-2.203h16.699c0.946 0 1.891 0.627 2.522 1.259 0.627 1.259 0.946 2.203 0.627 3.15zM867.347 742.479c0 1.891-1.574 3.15-3.15 3.15h-15.438c-1.891 0-3.15-1.574-3.15-3.15v-87.591c0-25.203-6.618-35.603-22.371-35.603-16.067 0-31.193 11.342-42.851 21.739 0.315 2.835 0.315 5.672 0.315 8.507v93.263c0 1.891-1.574 3.15-3.15 3.15h-15.438c-1.891 0-3.15-1.574-3.15-3.15v-87.591c0-25.203-6.618-35.603-22.371-35.603s-29.931 10.395-42.851 21.739v101.771c0 1.891-1.574 3.15-3.15 3.15h-15.438c-1.891 0-3.15-1.574-3.15-3.15v-137.374c0-1.891 1.574-3.15 3.15-3.15h12.915c1.574 0 2.835 1.259 3.15 2.835l1.574 12.915c16.067-12.915 30.875-18.906 46.002-18.906 16.384 0 29.299 8.192 36.235 22.371 17.33-14.81 34.343-22.371 50.411-22.371 20.163 0 41.906 13.234 41.906 50.727v92.315zM1001.252 675.052c0 1.891-1.574 3.15-3.15 3.15h-86.331c1.259 23.63 13.547 50.098 45.371 50.098 13.234 0 24.576-4.723 31.822-8.819 0.627-0.315 1.574-0.627 2.522-0.315s1.574 0.946 1.891 1.574l5.355 11.342c0.627 1.574 0.315 3.15-1.259 4.096-11.342 7.563-28.355 12.603-43.481 12.603-39.699 0-65.219-30.247-65.219-77.195 0-42.851 23.63-72.779 57.343-72.779 34.027 0 55.139 27.726 55.139 72.779v3.467zM1134.847 742.479c0 1.891-1.574 3.15-3.15 3.15h-15.438c-1.891 0-3.15-1.574-3.15-3.15v-87.591c0-32.139-13.234-35.603-23.315-35.603-15.755 0-29.931 10.395-42.851 21.739v101.771c0 1.891-1.574 3.15-3.15 3.15h-15.438c-1.891 0-3.15-1.574-3.15-3.15v-137.374c0-1.891 1.574-3.15 3.15-3.15h12.915c1.574 0 2.835 1.259 3.15 2.835l1.574 12.915c16.067-12.915 30.875-18.906 46.002-18.906 20.795 0 42.851 13.234 42.851 50.727v92.633zM1070.572 417.005c-41.587 0-64.275-36.547-64.275-81.603 0-45.683 23.002-80.975 64.275-80.975 42.219 0 65.219 36.235 65.219 82.547 0 44.427-25.203 80.027-65.219 80.027zM1238.189 735.86c-7.875 5.987-20.48 12.915-34.027 12.915-19.534 0-30.247-11.659-30.247-33.083v-93.891h-19.219c-1.891 0-3.15-1.574-3.15-3.15v-13.234c0-1.891 1.574-3.15 3.15-3.15h19.219v-27.726c0-1.259 0.946-2.522 2.203-3.15l15.438-5.355c0.946-0.315 2.203-0.315 2.835 0.315 0.946 0.627 1.259 1.574 1.259 2.522v33.083h37.491c0.946 0 2.203 0.627 2.522 1.259 0.627 0.946 0.627 1.891 0.315 2.835l-5.355 13.234c-0.627 1.259-1.574 1.891-3.15 1.891h-32.139v92.633c0 12.603 6.299 13.864 11.342 13.864 8.192 0 16.384-4.723 22.371-9.138 0.627-0.627 1.891-0.627 2.522-0.315 0.946 0.315 1.574 0.946 2.203 1.891l5.355 11.342c0.627 1.891 0 3.467-0.946 4.411zM1235.041 409.127v-79.399c0-16.067 1.891-39.385-17.96-39.385-6.931 0-13.234 4.723-16.384 11.659-4.096 8.819-4.411 17.96-4.411 27.726v78.771c0 2.835-2.522 5.355-5.672 5.355h-28.355c-2.835-0.315-5.042-2.522-5.042-5.355v-146.51c0.315-2.522 2.522-4.723 5.355-4.723h26.467c2.522 0 4.411 1.891 5.042 4.096v22.371h0.627c7.875-20.163 19.219-29.618 38.755-29.618 12.915 0 25.203 4.723 33.395 17.33 7.563 11.659 7.563 31.507 7.563 45.683v92.315c-0.315 2.522-2.522 4.723-5.355 4.723h-28.672c-2.835-0.627-5.042-2.522-5.355-5.042zM1290.493 748.78c-18.587 0-32.451-7.246-39.067-11.659-1.259-0.946-1.891-2.522-1.259-3.779l5.355-12.603c0.315-0.946 0.946-1.574 1.891-1.891s1.891-0.315 2.522 0.315c6.299 3.779 15.755 9.138 31.507 9.138 8.507 0 28.355-2.203 28.355-21.739 0-13.234-11.971-18.587-26.151-24.891l-2.522-1.259c-15.755-7.246-35.603-16.067-35.603-42.535 0-19.534 14.491-39.385 46.947-39.385 13.864 0 25.522 3.467 32.768 6.618 1.259 0.627 1.891 1.574 1.891 2.835v14.179c0 0.946-0.627 2.203-1.574 2.522-0.946 0.627-2.203 0.627-3.15 0.315-7.246-3.467-16.699-6.618-29.618-6.618-17.33 0-26.151 5.987-26.151 17.96 0 12.288 10.395 17.96 26.151 25.203l1.891 0.946c9.768 4.411 19.534 9.138 26.779 16.699 6.618 6.931 9.768 15.755 9.768 26.779 0.946 26.151-19.219 42.851-50.727 42.851z"
        ],
        "width": 1634,
        "attrs": [],
        "isMulticolor": false,
        "isMulticolor2": false,
        "tags": [
          "amazon_payments"
        ],
        "grid": 10
      },
      "attrs": [],
      "properties": {
        "order": 1,
        "id": 6,
        "name": "amazon_payments",
        "prevSize": 32,
        "code": 59392
      },
      "setIdx": 0,
      "setId": 2,
      "iconIdx": 6
    },
    {
      "icon": {
        "paths": [
          "M163.84 307.2c0 0 327.68 430.080 327.68 430.080 20.48 0 348.16-430.080 348.16-430.080h-675.84z"
        ],
        "attrs": [
          {}
        ],
        "isMulticolor": false,
        "isMulticolor2": false,
        "colorPermutations": {
          "6868681": [
            {
              "f": 0
            }
          ]
        },
        "tags": [
          "arrow-down"
        ],
        "grid": 10
      },
      "attrs": [
        {}
      ],
      "properties": {
        "order": 36,
        "id": 7,
        "prevSize": 32,
        "code": 58887,
        "name": "arrow-down"
      },
      "setIdx": 0,
      "setId": 2,
      "iconIdx": 7
    },
    {
      "icon": {
        "paths": [
          "M969.527 284.891c-7.351-8.942-17.902-10.606-28.16-10.606-0.037 0-0.091 0-0.128 0l-594.395-54.857c-13.915 0-21.358 4.571-25.161 9.216-4.023 4.901-8.174 13.458-4.791 29.934l103.241 292.114c8.32 20.827 32.859 34.45 54.674 34.45h430.117c22.162 0 43.721-14.592 48.183-37.138l24.759-234.057c2.286-11.319-0.768-19.84-8.338-29.056z",
          "M875.886 640h-483.712l-137.179-429.184c0 0-14.007-40.997-18.542-54.199-7.058-20.517-14.958-28.617-35.602-28.617-20.37 0-153.527 0-153.527 0-21.065 0-38.309 15.506-38.309 36.571s17.243 36.571 38.309 36.571h123.557l153.691 485.358c6.473 19.438 15.104 26.642 48.256 26.642s503.040 0 503.040 0c21.065 0 38.309-15.506 38.309-36.571 0.018-21.065-17.225-36.571-38.29-36.571z",
          "M533.723 830.976c0 42.355-34.335 76.69-76.69 76.69s-76.69-34.335-76.69-76.69c0-42.355 34.335-76.69 76.69-76.69s76.69 34.335 76.69 76.69z",
          "M862.866 830.976c0 42.355-34.335 76.69-76.69 76.69s-76.69-34.335-76.69-76.69c0-42.355 34.335-76.69 76.69-76.69s76.69 34.335 76.69 76.69z"
        ],
        "width": 1006,
        "attrs": [
          {},
          {},
          {},
          {}
        ],
        "isMulticolor": false,
        "isMulticolor2": false,
        "colorPermutations": {
          "6868681": [
            {
              "f": 0
            },
            {
              "f": 0
            },
            {
              "f": 0
            },
            {
              "f": 0
            }
          ]
        },
        "tags": [
          "cart"
        ],
        "grid": 10
      },
      "attrs": [
        {},
        {},
        {},
        {}
      ],
      "properties": {
        "order": 6,
        "id": 8,
        "name": "cart",
        "prevSize": 32,
        "code": 58880
      },
      "setIdx": 0,
      "setId": 2,
      "iconIdx": 8
    },
    {
      "icon": {
        "paths": [
          "M898.194 317.44h-790.674c-28.965 0-52.663-23.698-52.663-52.663v0c0-28.965 23.698-52.663 52.663-52.663h790.674c28.965 0 52.663 23.698 52.663 52.663v0c0 28.965-23.698 52.663-52.663 52.663z",
          "M898.194 564.663h-790.674c-28.965 0-52.663-23.698-52.663-52.663v0c0-28.965 23.698-52.663 52.663-52.663h790.674c28.965 0 52.663 23.698 52.663 52.663v0c0 28.965-23.698 52.663-52.663 52.663z",
          "M898.194 811.886h-790.674c-28.965 0-52.663-23.698-52.663-52.663v0c0-28.965 23.698-52.663 52.663-52.663h790.674c28.965 0 52.663 23.698 52.663 52.663v0c0 28.965-23.698 52.663-52.663 52.663z"
        ],
        "width": 1006,
        "attrs": [
          {},
          {},
          {}
        ],
        "isMulticolor": false,
        "isMulticolor2": false,
        "colorPermutations": {
          "6868681": [
            {
              "f": 0
            },
            {
              "f": 0
            },
            {
              "f": 0
            }
          ]
        },
        "tags": [
          "hamburger"
        ],
        "grid": 10
      },
      "attrs": [
        {},
        {},
        {}
      ],
      "properties": {
        "order": 7,
        "id": 9,
        "name": "hamburger",
        "prevSize": 32,
        "code": 58881
      },
      "setIdx": 0,
      "setId": 2,
      "iconIdx": 9
    },
    {
      "icon": {
        "paths": [
          "M898.194 564.663h-790.674c-28.965 0-52.663-23.698-52.663-52.663v0c0-28.965 23.698-52.663 52.663-52.663h790.674c28.965 0 52.663 23.698 52.663 52.663v0c0 28.965-23.698 52.663-52.663 52.663z"
        ],
        "width": 1006,
        "attrs": [
          {}
        ],
        "isMulticolor": false,
        "isMulticolor2": false,
        "colorPermutations": {
          "6868681": [
            {
              "f": 0
            }
          ]
        },
        "tags": [
          "minus"
        ],
        "grid": 10
      },
      "attrs": [
        {}
      ],
      "properties": {
        "order": 9,
        "id": 10,
        "name": "minus",
        "prevSize": 32,
        "code": 58882
      },
      "setIdx": 0,
      "setId": 2,
      "iconIdx": 10
    },
    {
      "icon": {
        "paths": [
          "M891.337 457.143h-342.766v-341.541c0-28.965-25.893-52.663-54.857-52.663s-54.857 23.698-54.857 52.663v341.541h-338.194c-28.965 0-52.663 25.893-52.663 54.857s23.698 54.857 52.663 54.857h338.194v339.419c0 28.965 25.893 52.663 54.857 52.663s54.857-23.698 54.857-52.663v-339.419h342.766c28.965 0 52.663-25.893 52.663-54.857s-23.698-54.857-52.663-54.857z"
        ],
        "width": 1006,
        "attrs": [
          {}
        ],
        "isMulticolor": false,
        "isMulticolor2": false,
        "colorPermutations": {
          "6868681": [
            {
              "f": 0
            }
          ]
        },
        "tags": [
          "plus"
        ],
        "grid": 10
      },
      "attrs": [
        {}
      ],
      "properties": {
        "order": 11,
        "id": 11,
        "name": "plus",
        "prevSize": 32,
        "code": 58885
      },
      "setIdx": 0,
      "setId": 2,
      "iconIdx": 11
    },
    {
      "icon": {
        "paths": [
          "M813.586 752.439l-242.377-242.377 241.518-241.518c20.48-20.48 18.926-55.552-1.554-76.032s-55.552-22.034-76.032-1.554l-241.518 241.518-239.141-239.141c-20.48-20.48-55.552-18.926-76.032 1.554s-22.034 55.552-1.554 76.032l239.141 239.141-240 240c-20.48 20.48-18.926 55.552 1.554 76.032s55.552 22.034 76.032 1.554l240-240 242.377 242.377c20.48 20.48 55.552 18.926 76.032-1.554s22.034-55.552 1.554-76.032z"
        ],
        "width": 1006,
        "attrs": [
          {}
        ],
        "isMulticolor": false,
        "isMulticolor2": false,
        "colorPermutations": {
          "6868681": [
            {
              "f": 0
            }
          ]
        },
        "tags": [
          "x"
        ],
        "grid": 10
      },
      "attrs": [
        {}
      ],
      "properties": {
        "order": 14,
        "id": 12,
        "name": "x",
        "prevSize": 32,
        "code": 58886
      },
      "setIdx": 0,
      "setId": 2,
      "iconIdx": 12
    },
    {
      "icon": {
        "paths": [
          "M379.396 51.2h-261.894c-39.781 0-66.302 26.521-66.302 66.302v261.894c0 39.781 26.521 66.302 66.302 66.302h261.894c39.781 0 66.302-26.521 66.302-66.302v-261.894c0-39.781-26.521-66.302-66.302-66.302zM904.84 51.2h-263.552c-39.781 0-66.302 26.521-66.302 66.302v261.894c0 39.781 26.521 66.302 66.302 66.302h261.894c39.781 0 66.302-26.521 66.302-66.302v-261.894c0-39.781-24.863-66.302-64.644-66.302zM379.396 576.644h-261.894c-39.781 0-66.302 26.521-66.302 66.302v261.894c0 39.781 26.521 66.302 66.302 66.302h261.894c39.781 0 66.302-26.521 66.302-66.302v-263.552c0-38.124-26.521-64.644-66.302-64.644zM904.84 576.644h-263.552c-39.781 0-66.302 26.521-66.302 66.302v261.894c0 39.781 26.521 66.302 66.302 66.302h261.894c39.781 0 66.302-26.521 66.302-66.302v-263.552c0-38.124-24.863-64.644-64.644-64.644z"
        ],
        "attrs": [
          {
            "visibility": false
          }
        ],
        "isMulticolor": false,
        "isMulticolor2": false,
        "tags": [
          "grid-view"
        ],
        "grid": 10
      },
      "attrs": [
        {
          "visibility": false
        }
      ],
      "properties": {
        "order": 32,
        "id": 13,
        "prevSize": 32,
        "code": 58883,
        "name": "grid-view"
      },
      "setIdx": 0,
      "setId": 2,
      "iconIdx": 13
    },
    {
      "icon": {
        "paths": [
          "M235.189 51.2h-117.687c-39.781 0-66.302 26.521-66.302 66.302v119.344c0 39.781 26.521 66.302 66.302 66.302h119.344c39.781 0 66.302-26.521 66.302-66.302v-119.344c-1.658-39.781-28.178-66.302-67.96-66.302zM906.498 51.2h-454.17c-39.781 0-66.302 26.521-66.302 66.302v119.344c0 39.781 26.521 66.302 66.302 66.302h454.17c39.781 0 66.302-26.521 66.302-66.302v-119.344c0-39.781-26.521-66.302-66.302-66.302zM235.189 387.684h-117.687c-39.781 0-66.302 26.521-66.302 66.302v119.344c0 39.781 26.521 66.302 66.302 66.302h119.344c39.781 0 66.302-26.521 66.302-66.302v-119.344c-1.658-41.439-28.178-66.302-67.96-66.302zM906.498 387.684h-454.17c-39.781 0-66.302 26.521-66.302 66.302v119.344c0 39.781 26.521 66.302 66.302 66.302h454.17c39.781 0 66.302-26.521 66.302-66.302v-119.344c0-41.439-26.521-66.302-66.302-66.302zM235.189 722.509h-117.687c-39.781 0-66.302 26.521-66.302 66.302v119.344c0 39.781 26.521 66.302 66.302 66.302h119.344c39.781 0 66.302-26.521 66.302-66.302v-119.344c-1.658-39.781-28.178-66.302-67.96-66.302zM906.498 722.509h-454.17c-39.781 0-66.302 26.521-66.302 66.302v119.344c0 39.781 26.521 66.302 66.302 66.302h454.17c39.781 0 66.302-26.521 66.302-66.302v-119.344c0-39.781-26.521-66.302-66.302-66.302z"
        ],
        "attrs": [
          {
            "visibility": false
          }
        ],
        "isMulticolor": false,
        "isMulticolor2": false,
        "tags": [
          "list-view"
        ],
        "grid": 10
      },
      "attrs": [
        {
          "visibility": false
        }
      ],
      "properties": {
        "order": 33,
        "id": 14,
        "prevSize": 32,
        "code": 58884,
        "name": "list-view"
      },
      "setIdx": 0,
      "setId": 2,
      "iconIdx": 14
    },
    {
      "icon": {
        "paths": [
          "M444.175 425.705v-19.181h-73.662v92.006h73.661v-18.904h-51.702v-18.345h50.312v-18.904h-50.312v-16.677zM547.858 431.264c0-10.285-4.17-16.401-11.12-20.293-7.227-4.17-15.288-4.449-26.685-4.449h-50.59v92.285h21.959v-33.633h23.625c8.061 0 12.785 0.833 16.121 3.891 3.891 4.449 3.614 12.509 3.614 18.068v11.674h22.238v-18.068c0-8.34-0.556-12.232-3.614-16.956-1.946-2.781-6.115-5.838-10.841-7.783 5.559-2.501 15.288-10.007 15.288-24.74zM518.95 444.329c-3.058 1.946-6.671 1.946-10.841 1.946h-26.685v-20.57h27.241c3.891 0 7.783 0.279 10.564 1.668s4.725 4.17 4.725 8.063c-0.279 4.17-1.946 7.227-5.003 8.896zM148.974 478.242h45.865l8.34 20.57h44.751v-72.272l31.965 72.272h19.458l31.967-72.272v72.272h22.515v-92.285h-36.414l-26.406 62.543-28.907-62.543h-35.858v87.28l-37.526-87.28h-32.8l-36.968 86.168v5.838h21.405l8.617-20.293zM171.768 422.090l15.011 36.691h-30.020l15.011-36.691zM639.587 426.261h20.847v-19.737h-21.405c-15.288 0-26.408 3.336-33.356 10.841-9.452 10.007-11.953 22.238-11.953 36.137 0 16.677 3.891 27.241 11.674 35.302 6.115 8.34 17.235 11.397 31.967 10.285h25.851l8.34-20.57h45.865l8.617 20.57h44.753v-69.214l41.696 69.214h31.133v-92.285h-22.515v64.211l-38.638-64.211h-33.635v87.28l-37.249-87.28h-32.8l-31.133 72.549h-10.007c-5.838 0-11.953-1.112-15.288-4.725-4.17-4.725-6.115-11.674-6.115-21.682 0-9.73 2.501-16.956 6.392-20.847 4.449-4.725 8.896-5.838 16.956-5.838zM694.624 422.090l15.288 36.691h-30.299l15.011-36.691zM560.643 406.524h22.515v92.285h-22.515v-92.285zM642.368 589.983c0-10.564-4.449-16.401-11.397-20.57-7.227-3.891-15.288-4.449-26.408-4.449h-50.869v92.285h22.238v-33.635h23.627c8.063 0 13.065 0.833 16.123 4.17 4.17 4.17 3.614 12.509 3.614 18.068v11.397h22.238v-18.345c0-8.063-0.556-12.232-3.614-16.956-1.946-2.781-5.838-5.838-10.841-7.783 5.282-1.946 15.288-9.452 15.288-24.184zM613.458 603.046c-3.058 1.668-6.671 1.946-10.841 1.946h-26.685v-20.57h27.241c3.891 0 7.783 0 10.564 1.668 2.781 1.389 4.449 4.449 4.449 8.34s-1.946 6.95-4.725 8.617zM506.162 565.244h-70.324l-28.076 30.299-27.241-30.299h-88.393v92.285h87.28l28.076-30.578 27.241 30.578h42.806v-30.855h27.518c19.181 0 38.359-5.282 38.359-30.855-0.279-25.851-19.737-30.578-37.247-30.578zM368.013 638.073h-53.925v-18.345h48.367v-18.904h-48.367v-16.677h55.315l24.184 26.964-25.575 26.964zM455.572 648.913l-33.911-37.526 33.912-36.414v73.938zM505.885 607.773h-28.353v-23.348h28.63c8.061 0 13.343 3.336 13.343 11.397 0 7.783-5.282 11.953-13.622 11.953zM727.98 584.145v-18.904h-73.384v92.006h73.384v-19.181h-51.425v-18.345h50.31v-18.904h-50.31v-16.677zM900.041 611.109v0c-0.556-0.833-1.112-1.668-1.946-2.222-5.003-5.003-13.065-7.227-25.017-7.504l-11.953-0.279c-3.614 0-6.115-0.279-8.617-1.112-2.781-1.112-4.725-3.336-4.725-6.95 0-3.058 0.833-5.003 3.336-6.671 2.222-1.389 5.003-1.668 8.896-1.668h40.028v-19.737h-43.92c-23.072 0-31.688 14.176-31.688 27.518 0 29.186 25.851 27.797 46.422 28.63 3.891 0 6.115 0.556 7.783 1.946s2.781 3.336 2.781 6.115c0 2.501-1.112 4.449-2.501 6.115-1.668 1.668-4.725 2.222-8.896 2.222h-42.252v19.737h42.529c14.176 0 24.462-3.891 30.020-11.674v0 0c3.058-4.449 4.725-10.285 4.725-17.235-0.279-8.063-1.946-13.065-5.003-17.235zM867.799 675.32h-56.982v-8.34c-6.671 5.282-18.625 8.34-30.020 8.34h-179.845v-29.744c0-3.614-0.279-3.891-3.891-3.891h-2.781v33.635h-59.206v-34.748c-10.007 4.17-21.126 4.725-30.578 4.449h-6.95v30.578h-71.716l-17.79-20.014-18.625 20.014h-117.303v-128.699h118.692l16.956 19.737 18.068-19.737h79.497c9.173 0 24.184 0.833 31.133 7.504v-7.504h71.159c6.671 0 21.126 1.389 29.744 7.504v-7.504h107.573v7.504c5.282-5.003 16.677-7.504 26.408-7.504h60.318v7.504c6.392-4.449 15.288-7.504 27.518-7.504h40.861v-428.348h-781.090v324.388l23.907-54.759h57.54l7.504 15.288v-15.288h67.269l14.734 33.077 14.455-33.079h213.757c9.73 0 18.345 1.946 24.74 7.504v-7.504h58.65v7.504c10.007-5.559 22.515-7.504 36.691-7.504h84.779l7.783 15.288v-15.288h62.82l8.617 15.288v-15.288h61.151v128.42h-61.709l-11.674-19.458v19.458h-77.275l-8.34-20.57h-18.904l-8.617 20.57h-40.028c-15.844 0-27.518-3.614-35.302-7.783v7.783h-95.064v-29.186c0-4.17-0.833-4.449-3.336-4.449h-3.614v33.635h-184.014v-15.844l-6.671 15.844h-38.359l-6.671-15.844v15.567h-73.94l-8.34-20.57h-18.902l-8.617 20.57h-35.025v388.32h780.808v-235.716c-8.617 4.725-20.293 6.392-31.967 6.392zM783.851 637.515h-42.806v19.737h42.808c22.238 0 34.469-9.173 34.469-29.186 0-9.452-2.222-15.011-6.671-19.458-5.003-5.003-13.065-7.227-25.296-7.504l-11.953-0.279c-3.614 0-6.115-0.279-8.617-1.112-2.781-1.112-4.725-3.336-4.725-6.95 0-3.058 0.833-5.003 3.336-6.671 2.222-1.389 4.725-1.668 8.896-1.668h40.307v-19.737h-44.197c-23.072 0-31.411 14.176-31.411 27.518 0 29.186 25.851 27.797 46.422 28.63 3.891 0 6.115 0.556 7.783 1.946 1.389 1.389 2.781 3.336 2.781 6.115 0 2.501-1.112 4.449-2.501 6.115-1.389 1.946-4.449 2.501-8.617 2.501z"
        ],
        "attrs": [],
        "isMulticolor": false,
        "isMulticolor2": false,
        "tags": [
          "american_express"
        ],
        "defaultCode": 65,
        "grid": 10
      },
      "attrs": [],
      "properties": {
        "id": 15,
        "order": 1,
        "prevSize": 32,
        "code": 65,
        "name": "american_express"
      },
      "setIdx": 0,
      "setId": 2,
      "iconIdx": 15
    },
    {
      "icon": {
        "paths": [
          "M349 185.6q96 0 177.5 46.5t129 127 47.5 175.5q0 96-46.5 177.5t-127 129.5-175.5 48q-96 0-177.5-46.5t-129-127-47.5-176.5 46.5-177.5 127-129 175.5-47.5zM356 689.6q49 13 85 1.5t51-53.5q22-63-35-93 43-10 50-57 9-59-77-89l16-64-39-9-15 61q-6-1-16.5-3.5t-14.5-3.5l15-62-38-10-16 63q-9-1-25-5v-1l-53-13-10 41 28 7q19 5 17 23l-18 72-26 101q-3 13-17 10l-28-8-20 45 51 12q9 3 27 7l-16 65 38 9 16-63q25 7 31 8l-16 63 39 10zM902 459.6q9-4 23-8 12-3 24-3 28 0 47 10 20 9 33 26 11 14 20 38 6 22 6 48 0 40-15 74-13 34-39 61-24 25-59 41-34 15-74 15-1 0-7-0.5t-11-0.5q-7 0-29-2-22-4-35-7-21-5-35-13l99-412 87-13zM1261 361.6q0 10-5 22-4 9-13 18-7 8-18 12-9 5-23 5-18 0-31-10-15-10-15-33 0-10 5-22 4-9 13-18 8-7 18-12 12-5 23-5 16 0 32 11 14 11 14 32zM2142 408.6q-14-10-14-33 0-13 5-22 5-10 12-18 10-8 19-12 12-5 22-5 16 0 32 11 14 11 14 32 0 10-5 22-4 11-12 18-10 8-19 12-9 5-22 5-19 0-32-10zM1385 454.6h95l-17 69h-94l-25 105q-4 18-4 24-1 11 3 20 3 9 12 13 8 4 25 4 9 0 27-2 8-2 26-8l6 65q-24 8-37 11-17 4-47 4-40 0-61-11-21-12-30-32-10-18-8-46 0-25 8-55l55-235 88-14zM350 425.6q2 0 6 1 12 3 19.5 5t21 7 20.5 10.5 12 15.5 2 22q-2 9-7.5 15t-14 8-15.5 3-18.5-0.5-17-2.5-16-4-11.5-3zM1714 530.6q-13-5-23-8-11-4-30-4-43 0-67 28-24 30-24 78 0 29 12 47 13 18 46 18 17 0 32-3 22-7 27-9l6 68q-17 7-34 11-22 5-47 5-34 0-59-11-22-8-41-27-17-20-22-41-8-24-8-48 0-36 13-73 12-34 36-60 21-24 56-40 33-15 74-15 23 0 46 5 15 3 36 13zM1997 481.6q14 16 22 39 7 21 7 49 0 37-10 68-13 38-32 62-21 27-53 44-32 18-73 18-31 0-52-10-24-10-36-25-14-16-22-39-8-24-8-50 0-33 12-68 11-34 32-61t53-44q31-18 71-18 29 0 52 9 21 8 37 26zM2278 468.6q2-1 5-1.5t5.5-1.5 5.5-2 5-2l26-6q15-3 33-6 12-1 40-1 69 0 92 38 25 39 9 106l-39 161h-84l37-158q4-21 5-29 3-13 0-24-1-10-10-17-11-7-26-7-11 0-33 4l-55 231h-85zM1148 454.6h85l-72 299h-83zM2120 454.6h84l-71 299h-84zM261 494.6l4 1q-2 0-4-1zM847 689.6q5 0 6 1h6q2 1 6 1h11q20 0 37-10 17-9 30-26 12-14 21-36 7-24 7-43 0-27-9-42-9-16-34-16-8 0-20 3t-23 12zM1938 615.6q4-17 4-37 0-28-9-45-9-15-33-15-19 0-33 11t-23 27q-11 17-15 36-5 22-5 37 0 29 9 45 10 15 33 15 19 0 33-11 15-10 24-26.5t15-36.5zM321 541.6q2 0 9.5 2t12 3l13.5 3t14 4.5 14 6 13 6.5 10.5 8 8 10 4 12-1.5 14q-2 10-8.5 16.5t-16.5 8.5-18.5 3-22-1-20-3-19.5-4.5-14-3.5z"
        ],
        "width": 2506,
        "attrs": [],
        "isMulticolor": false,
        "isMulticolor2": false,
        "tags": [
          "bitcoin"
        ],
        "defaultCode": 66,
        "grid": 10
      },
      "attrs": [],
      "properties": {
        "id": 16,
        "order": 2,
        "prevSize": 32,
        "code": 66,
        "name": "bitcoin"
      },
      "setIdx": 0,
      "setId": 2,
      "iconIdx": 16
    },
    {
      "icon": {
        "paths": [
          "M716 621q-29 95-101 164 98 79 223 79 95 0 176.5-47t128.5-128.5 47-176.5q0-71-28-136.5t-75-112.5-112.5-75-136.5-28q-125 0-223 79 72 69 101 164h-28q-27-82-93-146-66 63-92 146h-29q27-93 99-164-99-79-221-79-95 0-176.5 47t-128.5 128.5-47 176.5 47 176.5 128.5 128.5 176.5 47q122 0 221-79-72-71-99-164h29q26 83 92 146 66-64 93-146h28zM369 407q-2 14-8 37-48-22-84 0-32 25-29 70 3 22 24 33 31 10 71-8-1 6-3 14.5t-3.5 15-3.5 11.5q-47 14-87 1-20-7-34.5-24.5t-15.5-37.5q-4-21 1.5-42t19.5-38.5 34-27.5q49-24 118-4zM551 478q-5-1-10 0.5t-9.5 4.5-8 7-5.5 9q-4 9-7 21.5t-5 21.5-5 23.5-4 21.5h-53l2-10q3-15 14-63.5t15-74.5h45q0 1-3 23l7.5-7.5t11.5-10 14.5-5.5 23.5-1l-15 42zM673 480l-8-2q-18-3-32 21-5 9-8.5 21.5t-5 21.5-4.5 23.5-4 21.5h-53l3-10q3-15 9-43.5t10.5-51.5 7.5-43h46q1 9-3 23l8-8t11.5-10 15-5.5 23.5-0.5zM864 554q24 6 46 6 28 0 28-13 0-6-4-9t-19-9q-39-13-39-42 0-11 4-19.5t13-15.5 24-11 36-4q32 0 46 3l-8 34q-13-1-36-1-26 0-26 11 0 6 4 9t20 8q36 13 36 42 0 50-79 50-6 0-28-2-11 0-14-1l-9-1h-3zM442 439l-30 148h-51l30-148h51zM838 549l-6 38h-47l4-24q-25 28-57 28-22 0-34.5-14.5t-12.5-36.5q0-1 4-31l14-69h50l-14 69q0 2-2 9.5t-2 12.5q0 7 6.5 12.5t15.5 4.5q31 0 39-40l14-68h52z"
        ],
        "width": 1190,
        "attrs": [],
        "isMulticolor": false,
        "isMulticolor2": false,
        "tags": [
          "cirrus"
        ],
        "defaultCode": 67,
        "grid": 10
      },
      "attrs": [],
      "properties": {
        "id": 17,
        "order": 3,
        "prevSize": 32,
        "code": 67,
        "name": "cirrus"
      },
      "setIdx": 0,
      "setId": 2,
      "iconIdx": 17
    },
    {
      "icon": {
        "paths": [
          "M1157 710q-56 25-104 25-95 0-160-64.5t-65-159.5q0-92 66.5-157.5t160.5-65.5q53 0 102 26v98q-49-48-104-48-59 0-99.5 43t-40.5 104q0 65 40.5 106t103.5 41q54 0 100-46v98zM743 395q-30-34-68-34-27 0-44.5 13.5t-17.5 33.5q0 17 13.5 28.5t50.5 24.5q72 26 98 54.5t26 79.5q0 62-41.5 101t-106.5 39q-93 0-148-81l54-52q30 57 91 57 28 0 46.5-17t18.5-43q0-27-25-44-14-9-58-24-58-22-81.5-48t-23.5-71q0-52 38.5-87t94.5-35q71 0 126 49zM1417 290q96 0 161.5 64.5t65.5 157.5-66 158-161 65q-98 0-163.5-64t-65.5-161q0-92 67-156t162-64zM122 297q101 0 165.5 60t64.5 154q0 47-20 90.5t-57 74.5q-62 50-153 50h-122v-429h122zM390 297h84v429h-84v-429zM1948 297h91l-186 439h-44l-181-439h90l114 288zM2076 297h237v73h-153v95h147v72h-147v116h153v73h-237v-429zM2492 297q72 0 111 33t39 94q0 49-24.5 80t-71.5 41l134 181h-102l-116-174h-10v174h-84v-429h124zM2476 494q81 0 81-66 0-63-81-63h-24v129h24zM107 653q76 0 113-34 22-20 34.5-48.5t12.5-59.5q0-65-47-106-38-35-113-35h-23v283h23z"
        ],
        "width": 2680,
        "attrs": [],
        "isMulticolor": false,
        "isMulticolor2": false,
        "tags": [
          "discover"
        ],
        "defaultCode": 68,
        "grid": 10
      },
      "attrs": [],
      "properties": {
        "id": 18,
        "order": 4,
        "prevSize": 32,
        "code": 68,
        "name": "discover"
      },
      "setIdx": 0,
      "setId": 2,
      "iconIdx": 18
    },
    {
      "icon": {
        "paths": [
          "M658.621 350.791q0-98.558-83.19-167.972t-199.766-69.414-199.236 69.414-82.662 167.972v316.87q0 19.076 17.486 33.382t41.86 14.306h153.666v153.666q0 24.374 20.136 41.33t48.748 16.956 49.28-16.956 20.666-41.33v-153.666h154.726q24.374 0 41.33-14.306t16.956-33.382v-316.87z"
        ],
        "width": 752,
        "attrs": [],
        "isMulticolor": false,
        "isMulticolor2": false,
        "tags": [
          "fancy"
        ],
        "defaultCode": 70,
        "grid": 10
      },
      "attrs": [],
      "properties": {
        "id": 19,
        "order": 5,
        "prevSize": 32,
        "code": 70,
        "name": "fancy"
      },
      "setIdx": 0,
      "setId": 2,
      "iconIdx": 19
    },
    {
      "icon": {
        "paths": [
          "M841.8 87.609q30.4 0 52 22t21.6 52.4v670.4q0 30.4-21.6 52.4t-52 22h-665.6q-30.4 0-52.4-22t-22-52.4v-670.4q0-30.4 22-52.4t52.4-22h665.6zM899.4 162.009q0-24-16.8-41.2t-40.8-17.2h-665.6q-24 0-41.2 17.2t-17.2 41.2v670.4q0 24 17.2 41.2t41.2 17.2h665.6q24 0 40.8-17.2t16.8-41.2v-670.4zM827.4 255.609q-2.4-8-5.6-11.2-3.2-0.8-10.4 0-8.8 2.4-13.6 12-5.6 8.8-5.6 27.2 0 15.2 5.6 21.6 4.8 7.2 13.6 3.2 5.6-2.4 10.4-8 4-4 7.2-16l31.2-4.8q-0.8 12-8 26.4-6.4 14.4-15.2 20.8-11.2 9.6-24 12.8-17.6 4.8-23.2 3.2-11.2-1.6-16-6.4-7.2-6.4-11.2-16-3.2-12.8-3.2-28 0-19.2 4.8-33.6 1.6-6.4 9.6-19.2 6.4-11.2 11.2-14.4 7.2-7.2 25.6-12.8 20.8-7.2 32.8 0.8 11.2 7.2 16 26.4zM743.4 331.609q0 10.4 0.8 14.4 0 4.8 4 11.2l-32.8 9.6-1.6-6.4q-1.6-4.8-1.6-7.2-7.2 12-13.6 16-8 8-20 12-16.8 4-24-2.4-8.8-10.4-8.8-24t6.4-24.8q4.8-9.6 21.6-19.2 21.6-13.6 24-16 8-4 12.8-8.8 0-8-2.4-12-3.2-3.2-9.6-0.8-6.4 1.6-12.8 8-3.2 6.4-4.8 12.8l-32 4.8q2.4-12.8 5.6-20 1.6-6.4 8.8-15.2 8-6.4 13.6-9.6l17.6-7.2q17.6-4 24-4 8.8 0 16 4.8 4 4 6.4 12 2.4 9.6 2.4 18.4v53.6zM373.8 554.009q2.4 3.2 9.6 11.6t12.4 14.4 12.4 15.2 12.4 16.4 10 15.6 7.2 15.2 2.4 12.4v232h-138.4q-4.8-12-21.6-33.2t-16.8-36.4v-215.2q-7.2 3.2-39.6 14t-41.2 12.4q-2.4 0-7.6 0.4t-10-3.6-4.8-11.2v-265.6q0-15.2 16.8-22.4 79.2-32 174.4-62.4 9.6-2.4 16 1.6t6.4 14.4v274.4zM604.2 297.209q4-12.8 9.6-20.8 3.2-6.4 12-8.8 6.4-2.4 16 1.6l-9.6 36.8q-8.8-1.6-10.4-0.8-6.4 2.4-10.4 11.2-4.8 13.6-4.8 41.6v41.6l-33.6 9.6v-122.4l31.2-9.6v20zM364.2 285.209q0-3.2-0.8-6t-4-4.8-8-1.2l-105.6 36.8v288q12-4 17.6-7.2v-60q0-8.8 11.2-18t23.2-9.2q4.8 0 10 1.2t10.8 4 9.6 8.8 4 13.2v150.4h5.6v-119.2q26.4-7.2 26.4-18.4v-70.4l-33.6 10.4v-67.2q0-12-3.2-16.8-4-4-9.6-1.6-4 0.8-9.6 8.8-3.2 8.8-3.2 24.8v59.2l-33.6 10.4v-122.4l31.2-10.4v20q9.6-17.6 13.6-21.6 6.4-8 18.4-10.4 13.6-4.8 20.8 4.8 8.8 8 8.8 33.6v-109.6zM424.2 409.209q0 9.6 0.8 11.2 4 2.4 7.2 1.6 4.8-1.6 9.6-5.6l2.4 32q-13.6 7.2-23.2 10.4-13.6 4-18.4 1.6-5.6-3.2-8-11.2-4-8-4-29.6v-44l-12 4.8v-35.2l12-4v-22.4l33.6-33.6v46.4l19.2-5.6v34.4l-19.2 5.6v43.2zM554.6 383.609q-7.2 20.8-18.4 32.8-10.4 10.4-30.4 16.8-16 4-28 1.6-10.4-5.6-15.2-16.8-8-13.6-8-34.4 0-27.2 13.6-50.4 12-20 36.8-29.6 20-5.6 29.6-0.8 10.4 4.8 16 19.2 6.4 14.4 6.4 37.6v5.6l-68 20q1.6 12.8 4 15.2 6.4 8 13.6 4 5.6-1.6 9.6-6.4 2.4-2.4 5.6-8.8zM710.6 310.009q-0.8 0.8-6.4 4.8t-8.8 5.6q-11.2 8.8-12.8 11.2-2.4 4.8-2.4 8.8 0 7.2 2.4 9.6t8 0.8q4-0.8 11.2-6.4 4.8-7.2 7.2-12 1.6-8 1.6-15.2v-7.2zM204.2 326.009q-1.6 0.8-6.4 2.4t-7.6 2.8-6.8 2.8-6.4 3.2-4.8 3.6-3.6 4.4-1.2 5.6v261.6q0 9.6 11.2 9.6 8.8 0 25.6-9.6v-286.4zM521.8 353.209q0-12.8-4.8-19.2-4-4-11.2-2.4-6.4 2.4-12.8 13.6-3.2 6.4-3.2 17.6zM257.8 668.409q-4 0.8-17.2 5.2t-16.4 4.4q-12 0-18.8-9.2t-6.8-21.2q0-10.4 9.6-17.2t28.8-12.4 20.8-6.4v56.8zM257.8 723.609q-3.2 0.8-11.2 4t-13.6 4.8-8.8 1.6q-12 0-17.6-8.8t-5.6-16.8q0-9.6 7.2-16t14-8.4 20.4-4.8 15.2-2.8v47.2zM257.8 778.809q-19.2 10.4-27.2 10.4-29.6 0-29.6-28 0-4 2-7.6t5.2-6 7.6-4.4 8.8-3.6 9.6-2.8 9.2-1.6 8-1.2 6.4-1.6v46.4z"
        ],
        "width": 1018,
        "attrs": [],
        "isMulticolor": false,
        "isMulticolor2": false,
        "tags": [
          "interac"
        ],
        "defaultCode": 73,
        "grid": 10
      },
      "attrs": [],
      "properties": {
        "id": 20,
        "order": 10,
        "prevSize": 32,
        "code": 73,
        "name": "interac"
      },
      "setIdx": 0,
      "setId": 2,
      "iconIdx": 20
    },
    {
      "icon": {
        "paths": [
          "M1035 426.8q-76-40-157-46-85-7-133 31.5t-48 112.5 48 112.5 133 31.5q79-6 157-46v89q-84 21-165 25-80 3-142.5-7t-101.5-29.5-64.5-48-35.5-60-10-67.5q0-46 17-83.5t55.5-69.5 110.5-47.5 171-11.5q36 2 77 8t65 12l23 5v89zM293 324.8h180v242q0 171-259 171-53 0-106.5-6.5t-80.5-12.5l-27-7v-89q97 46 180 46 53 0 83-28t30-74v-242zM1494 519.8q53 5 86.5 31.5t33.5 69.5q0 31-17.5 55t-47.5 36.5-68 12.5h-388v-400h380q51 2 83.5 28t32.5 70q0 36-25 62.5t-70 33.5v1zM1259 487.8h110q10 0 12-1 18-3 30-16.5t12-33.5q0-19-12-32.5t-30-16.5q-4-2-12-2h-110v102zM1380 659.8q11 0 13-1 19-3 31-17.5t12-35.5q0-14-5.5-25.5t-15-18.5-22.5-10l-13-1h-121v109h121z"
        ],
        "width": 1614,
        "attrs": [],
        "isMulticolor": false,
        "isMulticolor2": false,
        "tags": [
          "jcb"
        ],
        "defaultCode": 74,
        "grid": 10
      },
      "attrs": [],
      "properties": {
        "id": 21,
        "order": 12,
        "prevSize": 32,
        "code": 74,
        "name": "jcb"
      },
      "setIdx": 0,
      "setId": 2,
      "iconIdx": 21
    },
    {
      "icon": {
        "paths": [
          "M901.208 542.545c-27.87 0-33.446 12.342-33.446 22.696 0 5.176 3.186 14.334 14.73 14.334 22.696 0 27.472-29.862 26.676-36.232-0.798 0-1.592-0.798-7.962-0.798zM574.32 491.979c-20.704 0-24.688 23.49-24.688 25.88h42.204c-0.398-1.99 3.584-25.88-17.52-25.88zM287.646 542.545c-27.87 0-33.446 12.342-33.446 22.696 0 5.176 3.186 14.334 14.732 14.334 22.696 0 27.474-29.862 26.676-36.232-0.798 0-1.592-0.798-7.964-0.798zM1089.142 495.959c-16.722 0-29.862 19.51-29.862 48.576 0 17.918 6.372 29.464 19.908 29.464 20.704 0 30.26-26.676 30.26-46.584 0.398-21.9-6.768-31.454-20.308-31.454zM845.068 168.277c-86.4 0-165.634 31.854-226.552 84.012 44.99 42.602 78.834 96.354 97.548 156.874h-16.722c-18.314-56.14-50.566-106.308-92.77-146.122-42.204 39.816-74.456 89.586-92.77 146.122h-16.724c19.51-62.91 55.742-119.048 103.522-162.050-62.51-54.15-143.736-86.8-232.524-86.8-196.69 0-355.954 159.264-355.954 355.952s159.264 355.952 355.954 355.952c88.79 0 170.014-32.65 232.524-86.4-43.002-39.020-76.448-87.992-97.152-143.336h17.122c19.112 48.576 48.576 91.974 86.002 127.012 37.428-35.038 66.89-78.438 86.002-127.012h17.12c-19.51 52.954-50.966 99.938-91.178 137.764 60.918 52.158 140.152 84.010 226.552 84.010 191.912 0 347.99-156.080 347.99-347.99s-156.078-347.99-347.99-347.99zM162.226 608.641l21.502-135.774-48.576 135.774h-25.88l-3.186-135.774-23.094 135.774h-36.632l30.26-180.366h55.342l1.592 110.688 37.426-110.688h59.724l-29.862 180.366h-38.622zM291.63 608.641l1.196-14.334c-0.798 0-11.944 17.52-39.020 17.52-13.934 0-36.632-7.564-36.632-40.612 0-42.204 34.242-56.14 67.288-56.14 5.178 0 16.324 0.798 16.324 0.798s1.196-2.39 1.196-9.556c0-11.548-10.352-13.138-24.288-13.138-24.688 0-41.408 6.768-41.408 6.768l5.574-32.65c0 0 19.908-8.362 45.788-8.362 13.538 0 52.158 1.592 52.158 45.788l-14.732 104.318h-33.446zM432.178 562.453c0 50.168-48.576 48.178-57.334 48.178-31.854 0-41.408-4.38-42.602-4.778l5.176-33.048c0-0.398 15.928 5.574 33.446 5.574 10.352 0 23.49-0.798 23.49-13.138 0-18.316-47.38-13.936-47.38-57.336 0-38.222 28.27-49.37 56.538-49.37 21.5 0 35.038 2.788 35.038 2.788l-4.778 33.446c0 0-20.704-1.592-25.88-1.592-13.536 0-20.704 2.788-20.704 12.344 0 19.51 44.99 9.954 44.99 56.936zM487.522 497.951l-10.75 65.696c-0.798 5.178 0.798 12.342 13.936 12.342 3.186 0 7.166-1.192 9.556-1.192l-4.778 32.25c-3.98 1.192-14.732 4.778-28.27 4.778-17.52 0-30.26-9.954-30.26-32.25 0-15.13 21.5-138.558 22.298-139.356h37.824l-3.98 22.298h18.712l-4.778 35.436h-19.51zM579.496 578.381c19.112 0 40.212-9.158 40.212-9.158l-6.77 36.63c0 0-12.342 6.37-39.816 6.37-30.26 0-65.298-12.74-65.298-66.096 0-46.188 28.27-87.198 66.092-87.198 41.408 0 54.15 30.26 54.15 55.344 0 9.952-4.778 34.64-4.778 34.64h-77.244c0-0.798-7.168 29.464 33.446 29.464zM705.314 504.719c-26.278-9.156-28.27 41.408-39.418 104.318h-39.020l23.49-146.522h35.436l-3.186 21.102c0 0 12.74-23.092 29.464-23.092 4.778 0 7.168 0.398 7.168 0.398-4.778 10.352-9.556 19.51-13.936 43.798zM814.012 606.647c0 0-20.308 5.178-33.048 5.178-44.99 0-68.086-31.058-68.086-78.438 0-71.27 42.602-109.096 86.4-109.096 19.51 0 42.602 9.158 42.602 9.158l-6.37 40.212c0 0-15.528-10.75-34.64-10.75-25.88 0-48.972 24.688-48.972 69.28 0 21.898 10.75 42.602 37.428 42.602 12.74 0 31.454-9.158 31.454-9.158l-6.768 41.010zM905.19 608.641l1.192-14.334c-0.798 0-11.944 17.52-39.020 17.52-13.936 0-36.63-7.564-36.63-40.612 0-42.204 34.242-56.14 67.288-56.14 5.178 0 16.324 0.798 16.324 0.798s1.192-2.39 1.192-9.556c0-11.548-10.352-13.138-24.288-13.138-24.688 0-41.408 6.768-41.408 6.768l5.574-32.65c0 0 19.908-8.362 45.788-8.362 13.538 0 52.158 1.592 52.158 45.788l-14.732 104.318c-0.398-0.398-33.446-0.398-33.446-0.398zM983.626 609.037h-39.020l23.49-146.522h35.436l-3.186 21.1c0 0 12.74-23.092 29.464-23.092 4.778 0 7.166 0.398 7.166 0.398-5.176 10.352-9.556 19.51-13.934 43.798-26.278-9.158-28.27 41.808-39.418 104.318zM1099.492 608.641l1.592-13.538c0 0-12.74 15.928-35.436 15.928-31.454 0-46.982-30.26-46.982-61.318 0-48.178 29.066-89.984 63.704-89.984 22.298 0 36.632 19.51 36.632 19.51l8.36-50.566h37.824l-29.066 179.968h-36.632zM1170.364 607.843c-1.99 1.192-3.582 1.592-5.574 1.592s-3.98-0.398-5.574-1.592c-1.99-1.192-3.186-2.39-4.378-4.38-1.196-1.99-1.592-3.584-1.592-5.574s0.398-3.98 1.592-5.574c1.192-1.99 2.388-3.186 4.378-4.38s3.582-1.592 5.574-1.592c1.99 0 3.98 0.398 5.574 1.592 1.99 0.798 3.186 2.39 4.38 4.38s1.592 3.582 1.592 5.574c0 1.99-0.398 3.98-1.592 5.574-1.196 1.99-2.788 3.582-4.38 4.38zM1169.17 589.527c-1.592-0.798-3.186-1.192-4.778-1.192s-3.186 0.398-4.778 1.192c-1.592 0.798-2.788 1.99-3.584 3.582s-1.192 3.186-1.192 4.778 0.398 3.186 1.192 4.778c0.798 1.592 1.99 2.788 3.584 3.584s3.186 1.192 4.778 1.192c1.592 0 3.186-0.398 4.778-1.192 1.592-0.798 2.788-1.99 3.582-3.584s1.192-3.186 1.192-4.778-0.398-3.186-1.192-4.778c-0.798-1.592-1.99-2.788-3.582-3.582zM1167.576 604.261l-1.196-1.99c-0.798-1.592-1.592-2.39-1.99-2.788s-0.798-0.398-1.592-0.398h-1.192v5.176h-1.99v-12.342h4.38c1.592 0 2.388 0 3.186 0.398s1.192 0.798 1.592 1.192c0.398 0.398 0.398 1.192 0.398 1.99s-0.398 1.592-0.798 2.39c-0.798 0.798-1.592 1.192-2.388 1.192 0.398 0 0.798 0.398 1.192 0.798s1.192 1.192 1.99 2.39l1.592 2.39h-3.186zM1166.78 595.499c0-0.398 0-0.798-0.398-0.798-0.398-0.398-0.398-0.398-0.798-0.798-0.398 0-1.192-0.398-1.99-0.398h-2.388v3.584h2.388c1.192 0 1.99 0 2.388-0.398 0.798-0.398 0.798-0.798 0.798-1.192z"
        ],
        "width": 1198,
        "attrs": [],
        "isMulticolor": false,
        "isMulticolor2": false,
        "tags": [
          "master"
        ],
        "defaultCode": 77,
        "grid": 10
      },
      "attrs": [],
      "properties": {
        "id": 22,
        "order": 13,
        "prevSize": 32,
        "code": 77,
        "name": "master"
      },
      "setIdx": 0,
      "setId": 2,
      "iconIdx": 22
    },
    {
      "icon": {
        "paths": [
          "M1725 314.4h103l-85 384h-102zM273 315.4q47 0 79.5 34.5t19.5 95.5q-12 59-54.5 92.5t-100.5 33.5h-79l-28 127h-110l84-383h189zM1253 315.4q47 0 80 34.5t20 95.5q-8 39-30.5 68t-55 43.5-71.5 14.5h-78l-27 127h-110l84-383h188zM411 412.4q5-1 21.5-5t27.5-6.5 29-5 35-2.5q28-1 52.5 4t45 16 29 33 1.5 52l-42 200h-101l7-30q-21 21-53 30t-60.5 4.5-45.5-31.5-9-71q11-52 62.5-74.5t140.5-22.5q3-15-3-24t-18-12.5-32-2.5q-26 1-56 8t-40 13zM1393 412.4q6-1 17.5-4t21.5-5.5 22.5-4.5 26-3.5 27.5-1.5q29-1 53.5 4t45 16 29.5 33 2 52l-43 200h-102l7-30q-21 21-53.5 30t-61.5 4.5-46-31.5-9-71q7-36 35-57.5t69-30.5 101-9q5-23-8.5-31.5t-44.5-7.5q-18 0-39 4t-36.5 8.5-23.5 8.5zM205 498.4q14 0 27.5-7t23-19 12.5-27q6-22-5-37t-32-15h-53l-24 105h51zM1186 498.4q21 0 40-15.5t24-37.5-6.5-37-31.5-15h-56l-22 105h52zM698 399.4l41 301-74 126h113l240-427h-104l-100 178-16-178h-100zM532 598.4q0-10 5-27h-26q-47 0-60 25-10 18-0.5 30t27.5 12q44-2 54-40zM1515 598.4q2-17 6-27h-25q-50 0-61 25-10 18-0.5 30t27.5 12q45-2 53-40z"
        ],
        "width": 1828,
        "attrs": [],
        "isMulticolor": false,
        "isMulticolor2": false,
        "tags": [
          "paypal"
        ],
        "defaultCode": 80,
        "grid": 10
      },
      "attrs": [],
      "properties": {
        "id": 23,
        "order": 15,
        "prevSize": 32,
        "code": 80,
        "name": "paypal"
      },
      "setIdx": 0,
      "setId": 2,
      "iconIdx": 23
    },
    {
      "icon": {
        "paths": [
          "M736 336q24 0 40-16.5t16-39.5-16-39.5-40-16.5q-15 0-28 7.5t-20 20.5-7 28q0 23 16 39.5t39 16.5zM439 604q-2 0-8.5 1t-12 2-11.5 1.5-8 0.5q-10 0-14.5-5.5t-4.5-20.5v-138h45l14-71h-59v-94l-97 24-15 70h-42v71h42v159q0 18 3.5 32t9 23.5 13.5 16 15.5 10 17.5 5.5 16.5 2.5 15.5 0.5q40 0 80-10v-80zM137 490q-13-6-17-8t-7.5-6.5-3.5-10.5q0-16 24-16 33 0 70 13v-79q-39-14-82-14-23 0-43 4.5t-38.5 15-29 31.5-10.5 51q0 61 64 91l14 7q15 6 21 11t6 13q0 19-31 19-25 0-70-15v82q51 15 91 15 120 0 120-107 0-21-6-37t-17-26.5-20.5-16-22.5-11.5zM575 473q20-10 37-10 21 0 41 6v-94q-8-6-34-6-40 0-50 36l-17-31h-89v314h112v-215zM952 687q26 7 40 7 12 0 20-0.5t22-4 23.5-9.5 21-18 18.5-29 12-44 5-60q0-43-6.5-73.5t-15.5-47-23.5-25.5-26.5-11.5-28-2.5q-39 0-67 26l-16-21h-91v426h112v-113zM1407 569v-37q0-89-32.5-126t-91.5-37q-139 0-139 163 0 43 10 74.5t24 48 37 26 41 11.5 44 2q47 0 92-16v-82q-74 13-92 13-15 0-24-2.5t-14.5-12-5.5-25.5h151zM793 688v-314h-112v314h112zM1256 508v-12t0.5-12 0.5-11 1-10.5 2-8.5 3-7.5 5-5.5 6.5-4 8.5-1q7 0 11.5 4.5t6 16.5 2 21.5 0.5 29.5h-47zM952 461q14-10 26-10 15 0 20 14t5 64q0 49-8 67.5t-24 18.5q-10 0-19-3v-151z"
        ],
        "width": 1408,
        "attrs": [],
        "isMulticolor": false,
        "isMulticolor2": false,
        "tags": [
          "stripe"
        ],
        "defaultCode": 83,
        "grid": 10
      },
      "attrs": [],
      "properties": {
        "id": 24,
        "order": 16,
        "prevSize": 32,
        "code": 83,
        "name": "stripe"
      },
      "setIdx": 0,
      "setId": 2,
      "iconIdx": 24
    },
    {
      "icon": {
        "paths": [
          "M1000.994 215.464q-41.73 61.552-100.154 104.326 0 4.174 1.044 13.040t1.044 13.040q0 81.376-23.996 162.75t-73.028 155.448-116.326 131.452-161.706 91.808-202.916 34.428q-169.010 0-308.808-90.764 29.212 2.086 47.99 2.086 140.842 0 251.428-85.548-65.726-1.044-117.368-40.166t-72.508-100.674q17.736 4.174 38.6 4.174 28.168 0 53.206-8.346-69.9-14.606-115.802-69.9t-45.904-127.278v-2.086q39.646 20.866 90.764 22.952-40.686-27.126-64.684-71.464t-23.996-95.46q0-52.164 26.082-102.24 76.16 94.938 184.138 149.71t234.214 61.032q-7.302-26.082-7.302-45.904 0-83.462 59.468-142.406t145.014-58.944q41.73 0 80.332 16.692t65.726 46.948q68.856-13.562 128.322-49.034-21.908 70.942-88.678 111.63 63.64-8.346 115.802-31.298z"
        ],
        "width": 1018,
        "attrs": [],
        "isMulticolor": false,
        "isMulticolor2": false,
        "tags": [
          "twitter"
        ],
        "defaultCode": 84,
        "grid": 10
      },
      "attrs": [],
      "properties": {
        "id": 25,
        "order": 17,
        "prevSize": 32,
        "code": 84,
        "name": "twitter"
      },
      "setIdx": 0,
      "setId": 2,
      "iconIdx": 25
    },
    {
      "icon": {
        "paths": [
          "M981 395q-40-18-83-17-31 0-47.5 11.5t-16.5 26 14.5 26 48.5 28.5q95 43 94 117 0 68-53 108.5t-142 40.5q-74-1-125-23l15-98 14 8q57 23 106 23 27 0 47-11.5t21-32.5q0-14-13-25.5t-47-28.5q-19-10-33.5-19t-30.5-23.5-25-34-9-41.5q1-63 54.5-102.5t136.5-39.5q53 0 100 17l-14 95zM513 296l-177 434h-118l-92-346q48 19 87.5 58t56.5 85q-62-171-270-223l1-8h181q42 0 51 35l39 200 13 60 109-295h119zM671 296l-70 434h-112l70-434h112zM1385 730h-105q-8-51-12-65l-144-1-23 66h-119l167-399q15-35 59-35h86zM1217 412q-3 8-7 18.5t-6.5 17.5-1.5 6q-36 96-45 122h91l-24-126z"
        ],
        "width": 1386,
        "attrs": [],
        "isMulticolor": false,
        "isMulticolor2": false,
        "tags": [
          "visa"
        ],
        "defaultCode": 86,
        "grid": 10
      },
      "attrs": [],
      "properties": {
        "id": 26,
        "order": 18,
        "prevSize": 32,
        "code": 86,
        "name": "visa"
      },
      "setIdx": 0,
      "setId": 2,
      "iconIdx": 26
    },
    {
      "icon": {
        "paths": [
          "M520 160q97 0 180.5 44t135.5 126.5 52 183.5q0 94-51.5 175t-136.5 127.5-180 46.5h-166q-95 0-177-46.5t-129.5-127.5-47.5-175q0-102 48-183.5t128.5-126 177.5-44.5h166zM355 833q88 0 162-43t117-117 43-162q0-87-43-161t-117-117-162-43q-87 0-161 43t-117 117-43 161q0 88 43 162t117 117 161 43zM282 701q-58-22-94-74t-37-116q1-64 37.5-116.5t93.5-73.5v380zM429 321q57 21 93.5 73.5t36.5 116.5-36.5 116-93.5 74v-380z"
        ],
        "width": 888,
        "attrs": [],
        "isMulticolor": false,
        "isMulticolor2": false,
        "tags": [
          "diners_club"
        ],
        "defaultCode": 99,
        "grid": 10
      },
      "attrs": [],
      "properties": {
        "id": 27,
        "order": 20,
        "prevSize": 32,
        "code": 99,
        "name": "diners_club"
      },
      "setIdx": 0,
      "setId": 2,
      "iconIdx": 27
    },
    {
      "icon": {
        "paths": [
          "M107 232q-21 2-51 20-26 16-41 43t-14 58q1 0 1-2h368q35 3 67 13 35 10 61.5 42t34.5 68q1-18 2-38.5t2-45.5 2-39h213q-3 20-5 45t-4 51.5-4 45.5q37-43 109-131 2-2 6-7t6-6h257q1-32-15-59.5t-44-42.5q-16-10-39.5-13t-44.5-1.5-45-0.5h-822zM1120 353l1 2 1-2h-2zM1117 354h-1q-13 10-26.5 23t-22.5 21.5-25 25.5-21 22-24.5 26.5-21.5 23.5l-2 2q8 10 23 29.5t23.5 31.5 22.5 29.5 25 31 24 29 26 28.5v-323zM205 556q10-1 36.5 0.5t43.5-1 30-12.5q22-19 21-38-4-14-14-22.5t-25-11-28-3-31 0-26 0.5zM737 509q-6 81-9 174-142-1-210 0 2-17 10-140-17 41-28 57-43 69-139 83h-360q0 24 8 45 12 29 39 49.5t57 21.5h892q31 0 52-11 31-13 50.5-43.5t17.5-63.5h-254.5t-5-1-5.5-3.5-3-6.5z"
        ],
        "width": 1122,
        "attrs": [],
        "isMulticolor": false,
        "isMulticolor2": false,
        "tags": [
          "dankort"
        ],
        "defaultCode": 100,
        "grid": 10
      },
      "attrs": [],
      "properties": {
        "id": 28,
        "order": 21,
        "prevSize": 32,
        "code": 100,
        "name": "dankort"
      },
      "setIdx": 0,
      "setId": 2,
      "iconIdx": 28
    },
    {
      "icon": {
        "paths": [
          "M872.478 114.361q19.002 0 32.197 13.197t13.195 32.197v719.949q0 19.002-13.197 32.197t-32.197 13.197h-204.794v-312.472h104.508l14.779-123.51h-119.287v-79.174q0-28.502 12.668-43.281t46.449-14.779h64.395v-109.787q-42.227-4.223-93.952-4.223-70.729 0-114.010 41.697t-43.281 117.704v91.84h-104.508v123.51h104.508v312.472h-387.421q-19.002 0-32.197-13.197t-13.195-32.197v-719.949q0-19.002 13.195-32.197t32.197-13.197h719.949z"
        ],
        "attrs": [],
        "isMulticolor": false,
        "isMulticolor2": false,
        "tags": [
          "facebook"
        ],
        "defaultCode": 102,
        "grid": 10
      },
      "attrs": [],
      "properties": {
        "id": 29,
        "order": 22,
        "prevSize": 32,
        "code": 102,
        "name": "facebook"
      },
      "setIdx": 0,
      "setId": 2,
      "iconIdx": 29
    },
    {
      "icon": {
        "paths": [
          "M716 403q-29-95-101-164 98-79 223-79 95 0 176 47t128.5 128.5 47.5 176.5-47.5 176.5-128.5 128.5-176 47q-125 0-223-79 72-69 101-164h-29q-28 83-92 146-65-62-93-146h-29q28 94 100 164-100 79-221 79-95 0-176.5-47t-128.5-128.5-47-176.5 47-176.5 128.5-128.5 176.5-47q121 0 221 79-72 70-100 164h29q28-84 93-146 64 63 92 146h29zM322 593l35-178h-70l-48 110-3-110h-68l-34 178h40l26-136 7 136h40l59-137-27 137h43zM812 559q-3 1-11 1-15 0-15-10 0-3 1-7l11-60h22l6-34h-22l6-34h-43l-21 110-1 12-2 14q-2 8-2 13 0 32 35 32 10 0 30-5zM476 516q4-21 4-29 0-10-3.5-18t-11-13.5-18-8.5-23.5-3-53 9l-6 32 4-1 7-2q18-4 35-4 28 0 28 14 0 1-0.5 4t-0.5 6q-7-2-18-2-37 0-57 15t-20 41q0 18 11 28.5t29 10.5q30 0 45-18v16h36v-4l1-6 1-7 2-9zM613 554q-21 8-46 8-37 0-37-25v-5h86q6-21 6-35 0-24-15.5-38.5t-43.5-14.5q-33 0-54.5 24.5t-21.5 61.5q0 65 74 65 25 0 45-5zM1067 527q1-8 1-17 0-29-18-47.5t-51-18.5q-38 0-61 24t-23 62q0 66 68 66 74 0 84-69zM739 448q-33-3-39-3-23 0-38 7t-21.5 17.5-6.5 24.5q0 27 34 39 1 1 3 2 9 4 12 5.5t4.5 4 1.5 5.5q0 13-26 13-14 0-39-5l-6 33h2l8 2q1 0 5 0.5t7 0.5q6 0 14 0.5t10 0.5q68 0 68-48 0-28-32-41-14-6-17-8t-3-6q0-13 22-13 7 0 31 2zM864 593q11-66 19-85.5t24-19.5h5l5 3 16-41q-4-2-6-2h-8q-19 0-37 22l4-21h-40l-26 144h44zM534 503q7-26 29-26 20 0 20 19 0 2-0.5 4t-0.5 3h-48zM999 479q23 0 23 30 0 3-0.5 8.5t-0.5 7.5q-2 11-8 19.5t-13 12.5-12 4q-25 0-25-33 0-18 10-33.5t26-15.5zM386 550q0-23 37-23 1 0 3.5 0.5t5.5 0.5q0 11-4 19t-11 12.5-16 4.5q-15 0-15-14z"
        ],
        "width": 1190,
        "attrs": [],
        "isMulticolor": false,
        "isMulticolor2": false,
        "tags": [
          "maestro"
        ],
        "defaultCode": 109,
        "grid": 10
      },
      "attrs": [],
      "properties": {
        "id": 30,
        "order": 25,
        "prevSize": 32,
        "code": 109,
        "name": "maestro"
      },
      "setIdx": 0,
      "setId": 2,
      "iconIdx": 30
    },
    {
      "icon": {
        "paths": [
          "M510.065 91.76q87.020 0 166.231 34.027t136.667 91.483 91.483 136.667 34.027 166.231q0 116.027-57.455 214.761t-156.19 156.19-214.761 57.455q-63.592 0-121.607-16.736 32.353-52.435 43.51-92.599l30.124-117.142q11.155 21.197 41.279 37.375t63.592 16.177q66.938 0 119.931-38.49t82-105.428 29.007-150.612q0-99.292-76.421-172.366t-194.681-73.075q-72.517 0-132.761 24.543t-97.060 64.149-56.341 85.905-19.523 93.155q0 58.013 21.754 101.523t65.266 61.361q7.809 3.348 13.388 0.557t7.809-10.599q7.809-27.891 8.925-34.587 4.463-12.271-5.579-23.428-29.007-32.353-29.007-83.674 0-84.789 58.572-145.59t153.403-60.802q83.674 0 130.53 45.741t46.856 119.373q0 61.361-16.736 113.237t-47.973 83.115-71.401 31.239q-33.47 0-54.667-24.543t-13.388-58.015q4.463-15.619 11.716-40.162t12.271-41.838 9.483-37.375 4.463-33.468q0-27.891-14.503-45.741t-42.395-17.849q-34.585 0-58.015 31.796t-23.428 79.769q0 17.849 2.789 34.585t6.137 24.543l3.348 7.809q-45.741 198.585-55.783 233.17-8.925 42.395-6.694 99.292-114.913-51.319-185.756-157.306t-70.843-235.401q0-177.388 125.51-302.896t302.896-125.51z"
        ],
        "attrs": [],
        "isMulticolor": false,
        "isMulticolor2": false,
        "tags": [
          "pinterest"
        ],
        "defaultCode": 112,
        "grid": 10
      },
      "attrs": [],
      "properties": {
        "id": 31,
        "order": 26,
        "prevSize": 32,
        "code": 112,
        "name": "pinterest"
      },
      "setIdx": 0,
      "setId": 2,
      "iconIdx": 31
    },
    {
      "icon": {
        "paths": [
          "M954.368 871.424l-271.872-271.872c41.472-55.296 64.512-124.416 64.512-198.144-4.608-193.536-161.28-350.208-350.208-350.208s-345.6 156.672-345.6 345.6c0 188.928 156.672 345.6 345.6 345.6 73.728 0 142.848-23.040 198.144-64.512l271.872 271.872c23.040 23.040 64.512 27.648 87.552 4.608 23.040-18.432 23.040-59.904 0-82.944zM166.4 396.8c0-129.024 101.376-230.4 230.4-230.4s230.4 101.376 230.4 230.4-101.376 230.4-230.4 230.4c-129.024 0-230.4-101.376-230.4-230.4z"
        ],
        "attrs": [],
        "isMulticolor": false,
        "isMulticolor2": false,
        "tags": [
          "search"
        ],
        "defaultCode": 115,
        "grid": 10
      },
      "attrs": [],
      "properties": {
        "id": 32,
        "order": 31,
        "prevSize": 32,
        "code": 115,
        "name": "search"
      },
      "setIdx": 0,
      "setId": 2,
      "iconIdx": 32
    },
    {
      "icon": {
        "paths": [
          "M260.866 442.715h84.31v285.565q0 51.674 11.559 84.991 12.92 30.598 40.115 54.395 26.516 24.476 70.031 40.115 41.475 14.279 94.506 14.279 46.234 0 86.349-10.2 34.675-6.798 90.429-33.318v-127.824q-56.432 38.755-116.945 38.755-29.916 0-59.833-15.638-17.678-11.559-26.516-31.959-6.798-22.436-6.798-90.429v-208.735h183.577v-127.824h-183.577v-204.654h-110.147q-5.44 57.793-26.516 102.67-21.077 43.514-53.034 69.352-33.318 31.277-77.512 44.873v115.583z"
        ],
        "attrs": [],
        "isMulticolor": false,
        "isMulticolor2": false,
        "tags": [
          "tumblr"
        ],
        "defaultCode": 116,
        "grid": 10
      },
      "attrs": [],
      "properties": {
        "id": 33,
        "order": 27,
        "prevSize": 32,
        "code": 116,
        "name": "tumblr"
      },
      "setIdx": 0,
      "setId": 2,
      "iconIdx": 33
    },
    {
      "icon": {
        "paths": [
          "M55.537 323.168l41.951 56.171q58.304-43.373 70.393-43.373 46.217 0 86.036 147.185 10.666 40.53 34.842 131.896t37.684 140.429q52.617 147.185 132.251 147.185 126.565 0 307.163-243.172 177.046-231.085 183.445-365.469v-15.642q0-163.537-130.829-167.802h-9.953q-175.625 0-241.75 215.443 38.397-16.355 66.836-16.355 60.438 0 60.438 62.571 0 7.822-0.711 16.355-4.266 50.485-59.727 137.939-56.884 91.722-84.612 91.722-36.973 0-65.413-139.361-8.533-32.708-36.262-211.176-12.088-76.791-44.795-113.766-28.44-31.996-71.104-32.708-5.689 0-12.088 0.711-44.795 4.266-132.962 81.768-45.506 42.662-130.829 119.454z"
        ],
        "width": 1030,
        "attrs": [],
        "isMulticolor": false,
        "isMulticolor2": false,
        "tags": [
          "vimeo"
        ],
        "defaultCode": 118,
        "grid": 10
      },
      "attrs": [],
      "properties": {
        "id": 34,
        "order": 28,
        "prevSize": 32,
        "code": 118,
        "name": "vimeo"
      },
      "setIdx": 0,
      "setId": 2,
      "iconIdx": 34
    },
    {
      "icon": {
        "paths": [
          "M50.814 775.844q0 55.941 36.921 95.096t89.875 39.159h679.469q52.957 0 89.875-39.159t36.919-95.096v-540.741q0-55.941-37.294-96.215t-89.5-40.277h-679.469q-52.208 0-89.502 40.277t-37.294 96.215v540.741zM390.178 678.141v-345.33q0-5.221 2.984-8.205 2.238-0.746 3.729-0.746l3.729 0.746 325.189 173.037q2.984 2.984 2.984 7.459 0 2.984-2.984 5.967l-325.189 173.037q-1.49 1.49-2.984 1.49-2.984 0-4.475-1.49-2.984-2.984-2.984-5.967z"
        ],
        "width": 1066,
        "attrs": [],
        "isMulticolor": false,
        "isMulticolor2": false,
        "tags": [
          "youtube"
        ],
        "defaultCode": 121,
        "grid": 10
      },
      "attrs": [],
      "properties": {
        "id": 35,
        "order": 29,
        "prevSize": 32,
        "code": 121,
        "name": "youtube"
      },
      "setIdx": 0,
      "setId": 2,
      "iconIdx": 35
    },
    {
      "icon": {
        "paths": [
          "M325.357 812.047c0 62.631-50.772 113.404-113.404 113.404s-113.404-50.772-113.404-113.404c0-62.631 50.772-113.404 113.404-113.404s113.404 50.772 113.404 113.404z",
          "M646.667 925.451h-160.656c0-213.578-173.886-387.462-387.462-387.462v0-160.656c302.409 0 548.119 245.707 548.119 548.119z",
          "M760.071 925.451c0-365.728-295.793-661.522-661.522-661.522v-165.38c456.451 0 826.9 370.451 826.9 826.9h-165.38z"
        ],
        "attrs": [],
        "isMulticolor": false,
        "isMulticolor2": false,
        "tags": [
          "rss"
        ],
        "defaultCode": 58880,
        "grid": 10
      },
      "attrs": [],
      "properties": {
        "id": 36,
        "order": 30,
        "prevSize": 32,
        "code": 114,
        "name": "rss"
      },
      "setIdx": 0,
      "setId": 2,
      "iconIdx": 36
    },
    {
      "icon": {
        "paths": [
          "M576 706.612v-52.78c70.498-39.728 128-138.772 128-237.832 0-159.058 0-288-192-288s-192 128.942-192 288c0 99.060 57.502 198.104 128 237.832v52.78c-217.102 17.748-384 124.42-384 253.388h896c0-128.968-166.898-235.64-384-253.388z"
        ],
        "tags": [
          "user",
          "profile",
          "avatar",
          "person",
          "member"
        ],
        "defaultCode": 59761,
        "grid": 16,
        "attrs": []
      },
      "attrs": [],
      "properties": {
        "ligatures": "user, profile2",
        "name": "user",
        "order": 38,
        "id": 492,
        "prevSize": 32,
        "code": 59761
      },
      "setIdx": 1,
      "setId": 1,
      "iconIdx": 0
    },
    {
      "icon": {
        "paths": [
          "M755.188 64c-107.63 0-200.258 87.554-243.164 179-42.938-91.444-135.578-179-243.216-179-148.382 0-268.808 120.44-268.808 268.832 0 301.846 304.5 380.994 512.022 679.418 196.154-296.576 511.978-387.206 511.978-679.418 0-148.392-120.43-268.832-268.812-268.832z"
        ],
        "tags": [
          "heart",
          "like",
          "love",
          "favorite"
        ],
        "defaultCode": 59866,
        "grid": 16,
        "attrs": []
      },
      "attrs": [],
      "properties": {
        "ligatures": "heart, like",
        "name": "heart",
        "order": 39,
        "id": 219,
        "prevSize": 32,
        "code": 59866
      },
      "setIdx": 1,
      "setId": 1,
      "iconIdx": 219
    }
  ],
  "height": 1024,
  "metadata": {
    "name": "icons"
  },
  "preferences": {
    "showGlyphs": true,
    "showQuickUse": true,
    "showQuickUse2": true,
    "showSVGs": true,
    "fontPref": {
      "prefix": "icon-",
      "metadata": {
        "fontFamily": "icons",
        "majorVersion": 1,
        "minorVersion": 0
      },
      "metrics": {
        "emSize": 1024,
        "baseline": 6.25,
        "whitespace": 50
      },
      "includeMetadata": false,
      "showSelector": false,
      "showMetrics": false,
      "showMetadata": false,
      "showVersion": false,
      "embed": false
    },
    "imagePref": {
      "prefix": "icon-",
      "png": true,
      "useClassSelector": true,
      "color": 4473924,
      "bgColor": 16777215,
      "classSelector": ".icon"
    },
    "historySize": 100,
    "showCodes": true,
    "gridSize": 16,
    "showGrid": true
  }
}